…
<span id="eq-bayes-prob">$$
\begin{eqnarray}
  Pr(k=j\ |\ \vec x) &=& \frac{P(j\ |\ \vec x)}{\sum_{i=1}^k P(i\ |\ \vec x)}
\end{eqnarray}
 \qquad(4)$$</span>

------------------------------------------------------------------------

# Example Calculation

## Training data

``` r
tibble::as_tibble(train)
#> # A tibble: 297 × 3
#>    feat1 feat2 Response
#>    <dbl> <dbl> <fct>   
#>  1  3.87  2.69 control 
#>  2  3.39  2.80 control 
#>  3  3.79  2.60 control 
#>  4  3.46  2.70 control 
#>  5  3.77  2.72 control 
#>  6  3.75  2.68 control 
#>  7  3.57  2.73 control 
#>  8  3.63  2.64 control 
#>  9  3.84  2.86 control 
#> 10  3.82  2.67 control 
#> # ℹ 287 more rows
```
…
