…
``` r
# simulate longitudinal data
# createLongData() is a wrapper for simulateLongData()
p <- list(nsubj = 20, beta0 = 1000, beta1 = 400, max.obs = 10, r.seed = 101,
          sd.pars = list(sigma = 250), auto.cor = 0.1)
ResponseData <- createLongData(subject = p)
> Warning: The `sd.pars` argument list is missing these parameter(s): 'tau0', 'tau1', 'tau01'.
> Using default parameters: 2, 2, 0.5.
ResponseData
> # A tibble: 127 × 5
>    pid          time    eij   yij Group  
>  * <chr>       <dbl>  <dbl> <dbl> <chr>  
>  1 subject_001     1   81.1 1480  subject
>  2 subject_001     3  300.  2498. subject
>  3 subject_001     5  184.  3180. subject
>  4 subject_002     1 -185.  1217  subject
>  5 subject_002     4  337.  2944. subject
>  6 subject_002     6 -331.  3079  subject
>  7 subject_003     1 -204.  1194. subject
>  8 subject_003     2 -530.  1266. subject
>  9 subject_003     3  -93.8 2101  subject
> 10 subject_003     4  167.  2760. subject
> # ℹ 117 more rows
…
